sample_out.log
/tools/software/synopsys/vcs/latest/bin/vcs -sverilog +vc -Mupdate -line -full64 testbench/tb_router_top.sv rtl/libs/*.sv	rtl/*.sv rtl/router_modules/*.sv VR_define.vh	-o simv
                         Chronologic VCS (TM)
       Version R-2020.12-SP2_Full64 -- Mon May  2 18:25:01 2022

                    Copyright (c) 1991 - 2021 Synopsys, Inc.
   This software and the associated documentation are proprietary to Synopsys,
 Inc. This software may only be used in accordance with the terms and conditions
 of a written license agreement with Synopsys, Inc. All other use, reproduction,
            or distribution of this software is strictly prohibited.

Parsing design file 'testbench/tb_router_top.sv'
Parsing included file 'VR_define.vh'.
Back to file 'testbench/tb_router_top.sv'.
Parsing design file 'rtl/libs/allocator_separable.sv'
Parsing design file 'rtl/libs/allocator_top.sv'
Parsing included file 'VR_define.vh'.
Back to file 'rtl/libs/allocator_top.sv'.
Parsing design file 'rtl/libs/allocator_wavefront.sv'
Parsing design file 'rtl/libs/arbiter_matrix.sv'
Parsing design file 'rtl/libs/arbiter_round_robin.sv'
Parsing design file 'rtl/libs/arbiter_top.sv'
Parsing included file 'VR_define.vh'.
Back to file 'rtl/libs/arbiter_top.sv'.
Parsing design file 'rtl/libs/fifo.sv'
Parsing design file 'rtl/libs/index_2_one_hot.sv'
Parsing design file 'rtl/libs/one_hot_2_index.sv'
Parsing design file 'rtl/libs/pipe_register_1D.sv'
Parsing design file 'rtl/libs/pipe_register_2D.sv'
Parsing design file 'rtl/libs/priority_encoder.sv'
Parsing design file 'rtl/router_top.sv'
Parsing design file 'rtl/topology.sv'
Parsing included file 'VR_define.vh'.
Back to file 'rtl/topology.sv'.
Parsing design file 'rtl/router_modules/crossbar.sv'
Parsing included file 'VR_define.vh'.
Back to file 'rtl/router_modules/crossbar.sv'.
Parsing design file 'rtl/router_modules/route_compute.sv'
Parsing included file 'VR_define.vh'.
Back to file 'rtl/router_modules/route_compute.sv'.
Parsing design file 'rtl/router_modules/select_vc.sv'
Parsing included file 'VR_define.vh'.
Back to file 'rtl/router_modules/select_vc.sv'.
Parsing design file 'rtl/router_modules/switch_allocator.sv'
Parsing design file 'rtl/router_modules/update_vca.sv'
Parsing design file 'rtl/router_modules/vc_allocator.sv'
Parsing design file 'rtl/router_modules/vc_availability.sv'
Parsing included file 'VR_define.vh'.
Back to file 'rtl/router_modules/vc_availability.sv'.
Parsing design file 'rtl/router_modules/vc_req_2_port_req.sv'
Parsing design file 'VR_define.vh'
Top Level Modules:
       tb_router_top
       pipe_register_2D
       torus_topology
       update_vca
TimeScale is 10 ns / 1 ns
Starting vcs inline pass...

16 modules and 0 UDP read.
recompiling module tb_router_top
recompiling module arbiter_top
recompiling module fifo
recompiling module pipe_register_1D
recompiling module pipe_register_2D
recompiling module priority_encoder
recompiling module router_top
recompiling module torus_topology
recompiling module crossbar
recompiling module route_compute
recompiling module select_vc
recompiling module switch_allocator
recompiling module update_vca
recompiling module vc_allocator
recompiling module vc_availability
recompiling module vc_req_2_port_req
All of 16 modules done
make[1]: Entering directory `/nethome/vsaxena36/ECE6115/Virtual_Channel_Router/csrc'
make[1]: Leaving directory `/nethome/vsaxena36/ECE6115/Virtual_Channel_Router/csrc'
make[1]: Entering directory `/nethome/vsaxena36/ECE6115/Virtual_Channel_Router/csrc'
rm -f _cuarc*.so _csrc*.so pre_vcsobj_*.so share_vcsobj_*.so
if [ -x ../simv ]; then chmod a-x ../simv; fi
g++  -o ../simv      -rdynamic  -Wl,-rpath='$ORIGIN'/simv.daidir -Wl,-rpath=./simv.daidir -Wl,-rpath=/tools/software/synopsys/vcs/R-2020.12-SP2/linux64/lib -L/tools/software/synopsys/vcs/R-2020.12-SP2/linux64/lib  -Wl,-rpath-link=./   objs/amcQw_d.o   _101167_archive_1.so  SIM_l.o       rmapats_mop.o rmapats.o rmar.o rmar_nd.o  rmar_llvm_0_1.o rmar_llvm_0_0.o           -lnuma -lvirsim -lerrorinf -lsnpsmalloc -lvfs    -lvcsnew -lsimprofile -luclinative /tools/software/synopsys/vcs/R-2020.12-SP2/linux64/lib/vcs_tls.o   -Wl,-whole-archive  -lvcsucli    -Wl,-no-whole-archive          /tools/software/synopsys/vcs/R-2020.12-SP2/linux64/lib/vcs_save_restore_new.o -ldl  -lc -lm -lpthread -ldl 
../simv up to date
make[1]: Leaving directory `/nethome/vsaxena36/ECE6115/Virtual_Channel_Router/csrc'
CPU time: 3.956 seconds to compile + .741 seconds to elab + .241 seconds to link
./simv | tee program.out
Chronologic VCS simulator copyright 1991-2020
Contains Synopsys proprietary information.
Compiler version R-2020.12-SP2_Full64; Runtime version R-2020.12-SP2_Full64;  May  2 18:25 2022


********************Time = 0***********
**********INPUT SIGNALS******************
Reset = x
Input:
	input_data[0]=xxxxxxxxxxxxxxxxxxxxxxxxxxxxxxxx
	input_data[1]=xxxxxxxxxxxxxxxxxxxxxxxxxxxxxxxx
	input_data[2]=xxxxxxxxxxxxxxxxxxxxxxxxxxxxxxxx
	input_data[3]=xxxxxxxxxxxxxxxxxxxxxxxxxxxxxxxx
	input_data[4]=xxxxxxxxxxxxxxxxxxxxxxxxxxxxxxxx
	input_valid=xxxxx
	op port:          1, op vc:          0, downstream_router_increment=x
	op port:          1, op vc:          1, downstream_router_increment=x
	op port:          1, op vc:          2, downstream_router_increment=x
	op port:          1, op vc:          3, downstream_router_increment=x
	op port:          2, op vc:          0, downstream_router_increment=x
	op port:          2, op vc:          1, downstream_router_increment=x
	op port:          2, op vc:          2, downstream_router_increment=x
	op port:          2, op vc:          3, downstream_router_increment=x
	op port:          3, op vc:          0, downstream_router_increment=x
	op port:          3, op vc:          1, downstream_router_increment=x
	op port:          3, op vc:          2, downstream_router_increment=x
	op port:          3, op vc:          3, downstream_router_increment=x
	op port:          4, op vc:          0, downstream_router_increment=x
	op port:          4, op vc:          1, downstream_router_increment=x
	op port:          4, op vc:          2, downstream_router_increment=x
	op port:          4, op vc:          3, downstream_router_increment=x
Outputs:
	ip port:          1, ip vc:          0, upstream_router_increment=x
	ip port:          1, ip vc:          1, upstream_router_increment=x
	ip port:          1, ip vc:          2, upstream_router_increment=x
	ip port:          1, ip vc:          3, upstream_router_increment=x
	ip port:          2, ip vc:          0, upstream_router_increment=x
	ip port:          2, ip vc:          1, upstream_router_increment=x
	ip port:          2, ip vc:          2, upstream_router_increment=x
	ip port:          2, ip vc:          3, upstream_router_increment=x
	ip port:          3, ip vc:          0, upstream_router_increment=x
	ip port:          3, ip vc:          1, upstream_router_increment=x
	ip port:          3, ip vc:          2, upstream_router_increment=x
	ip port:          3, ip vc:          3, upstream_router_increment=x
	ip port:          4, ip vc:          0, upstream_router_increment=x
	ip port:          4, ip vc:          1, upstream_router_increment=x
	ip port:          4, ip vc:          2, upstream_router_increment=x
	ip port:          4, ip vc:          3, upstream_router_increment=x
	out_data[0]=xxxxxxxxxxxxxxxxxxxxxxxxxxxxxxxx
	out_data[1]=xxxxxxxxxxxxxxxxxxxxxxxxxxxxxxxx
	out_data[2]=xxxxxxxxxxxxxxxxxxxxxxxxxxxxxxxx
	out_data[3]=xxxxxxxxxxxxxxxxxxxxxxxxxxxxxxxx
	out_data[4]=xxxxxxxxxxxxxxxxxxxxxxxxxxxxxxxx
	out_valid=xxxxx

**********VC BUFFER STATUS******************
Port=0, VC=0, vc_valid=x, vc_empty=x, vc_buffer=xxxxxxxxxxxxxxxxxxxxxxxxxxxxxxxx
Port=0, VC=1, vc_valid=x, vc_empty=x, vc_buffer=xxxxxxxxxxxxxxxxxxxxxxxxxxxxxxxx
Port=0, VC=2, vc_valid=x, vc_empty=x, vc_buffer=xxxxxxxxxxxxxxxxxxxxxxxxxxxxxxxx
Port=0, VC=3, vc_valid=x, vc_empty=x, vc_buffer=xxxxxxxxxxxxxxxxxxxxxxxxxxxxxxxx
Port=1, VC=0, vc_valid=x, vc_empty=x, vc_buffer=xxxxxxxxxxxxxxxxxxxxxxxxxxxxxxxx
Port=1, VC=1, vc_valid=x, vc_empty=x, vc_buffer=xxxxxxxxxxxxxxxxxxxxxxxxxxxxxxxx
Port=1, VC=2, vc_valid=x, vc_empty=x, vc_buffer=xxxxxxxxxxxxxxxxxxxxxxxxxxxxxxxx
Port=1, VC=3, vc_valid=x, vc_empty=x, vc_buffer=xxxxxxxxxxxxxxxxxxxxxxxxxxxxxxxx
Port=2, VC=0, vc_valid=x, vc_empty=x, vc_buffer=xxxxxxxxxxxxxxxxxxxxxxxxxxxxxxxx
Port=2, VC=1, vc_valid=x, vc_empty=x, vc_buffer=xxxxxxxxxxxxxxxxxxxxxxxxxxxxxxxx
Port=2, VC=2, vc_valid=x, vc_empty=x, vc_buffer=xxxxxxxxxxxxxxxxxxxxxxxxxxxxxxxx
Port=2, VC=3, vc_valid=x, vc_empty=x, vc_buffer=xxxxxxxxxxxxxxxxxxxxxxxxxxxxxxxx
Port=3, VC=0, vc_valid=x, vc_empty=x, vc_buffer=xxxxxxxxxxxxxxxxxxxxxxxxxxxxxxxx
Port=3, VC=1, vc_valid=x, vc_empty=x, vc_buffer=xxxxxxxxxxxxxxxxxxxxxxxxxxxxxxxx
Port=3, VC=2, vc_valid=x, vc_empty=x, vc_buffer=xxxxxxxxxxxxxxxxxxxxxxxxxxxxxxxx
Port=3, VC=3, vc_valid=x, vc_empty=x, vc_buffer=xxxxxxxxxxxxxxxxxxxxxxxxxxxxxxxx
Port=4, VC=0, vc_valid=x, vc_empty=x, vc_buffer=xxxxxxxxxxxxxxxxxxxxxxxxxxxxxxxx
Port=4, VC=1, vc_valid=x, vc_empty=x, vc_buffer=xxxxxxxxxxxxxxxxxxxxxxxxxxxxxxxx
Port=4, VC=2, vc_valid=x, vc_empty=x, vc_buffer=xxxxxxxxxxxxxxxxxxxxxxxxxxxxxxxx
Port=4, VC=3, vc_valid=x, vc_empty=x, vc_buffer=xxxxxxxxxxxxxxxxxxxxxxxxxxxxxxxx

**********BUFFER WRITE******************
Port=0, empty_vc_index=x
Port=1, empty_vc_index=x
Port=2, empty_vc_index=x
Port=3, empty_vc_index=x
Port=4, empty_vc_index=x

**********ROUTE COMPUTE******************
Port=0, VC=0, dst_port=xxxxx
Port=0, VC=1, dst_port=xxxxx
Port=0, VC=2, dst_port=xxxxx
Port=0, VC=3, dst_port=xxxxx
Port=1, VC=0, dst_port=xxxxx
Port=1, VC=1, dst_port=xxxxx
Port=1, VC=2, dst_port=xxxxx
Port=1, VC=3, dst_port=xxxxx
Port=2, VC=0, dst_port=xxxxx
Port=2, VC=1, dst_port=xxxxx
Port=2, VC=2, dst_port=xxxxx
Port=2, VC=3, dst_port=xxxxx
Port=3, VC=0, dst_port=xxxxx
Port=3, VC=1, dst_port=xxxxx
Port=3, VC=2, dst_port=xxxxx
Port=3, VC=3, dst_port=xxxxx
Port=4, VC=0, dst_port=xxxxx
Port=4, VC=1, dst_port=xxxxx
Port=4, VC=2, dst_port=xxxxx
Port=4, VC=3, dst_port=xxxxx

**********VC AVALABILITY******************
VCAvailability, out port=0, out vc=0, credits:xxxx, new_vc_availability:xxxxxxxxxxxxxxxxxxxx
VCAvailability, out port=0, out vc=1, credits:xxxx, new_vc_availability:xxxxxxxxxxxxxxxxxxxx
VCAvailability, out port=0, out vc=2, credits:xxxx, new_vc_availability:xxxxxxxxxxxxxxxxxxxx
VCAvailability, out port=0, out vc=3, credits:xxxx, new_vc_availability:xxxxxxxxxxxxxxxxxxxx
VCAvailability, out port=1, out vc=0, credits:xxxx, new_vc_availability:xxxxxxxxxxxxxxxxxxxx
VCAvailability, out port=1, out vc=1, credits:xxxx, new_vc_availability:xxxxxxxxxxxxxxxxxxxx
VCAvailability, out port=1, out vc=2, credits:xxxx, new_vc_availability:xxxxxxxxxxxxxxxxxxxx
VCAvailability, out port=1, out vc=3, credits:xxxx, new_vc_availability:xxxxxxxxxxxxxxxxxxxx
VCAvailability, out port=2, out vc=0, credits:xxxx, new_vc_availability:xxxxxxxxxxxxxxxxxxxx
VCAvailability, out port=2, out vc=1, credits:xxxx, new_vc_availability:xxxxxxxxxxxxxxxxxxxx
VCAvailability, out port=2, out vc=2, credits:xxxx, new_vc_availability:xxxxxxxxxxxxxxxxxxxx
VCAvailability, out port=2, out vc=3, credits:xxxx, new_vc_availability:xxxxxxxxxxxxxxxxxxxx
VCAvailability, out port=3, out vc=0, credits:xxxx, new_vc_availability:xxxxxxxxxxxxxxxxxxxx
VCAvailability, out port=3, out vc=1, credits:xxxx, new_vc_availability:xxxxxxxxxxxxxxxxxxxx
VCAvailability, out port=3, out vc=2, credits:xxxx, new_vc_availability:xxxxxxxxxxxxxxxxxxxx
VCAvailability, out port=3, out vc=3, credits:xxxx, new_vc_availability:xxxxxxxxxxxxxxxxxxxx
VCAvailability, out port=4, out vc=0, credits:xxxx, new_vc_availability:xxxxxxxxxxxxxxxxxxxx
VCAvailability, out port=4, out vc=1, credits:xxxx, new_vc_availability:xxxxxxxxxxxxxxxxxxxx
VCAvailability, out port=4, out vc=2, credits:xxxx, new_vc_availability:xxxxxxxxxxxxxxxxxxxx
VCAvailability, out port=4, out vc=3, credits:xxxx, new_vc_availability:xxxxxxxxxxxxxxxxxxxx

Mask Generation:
Port=0, VC=0, VC dst port=xxxxx, SA dst port=xxxxx, BR dst port=xxxxx, valid=x
Port=0, VC=1, VC dst port=xxxxx, SA dst port=xxxxx, BR dst port=xxxxx, valid=x
Port=0, VC=2, VC dst port=xxxxx, SA dst port=xxxxx, BR dst port=xxxxx, valid=x
Port=0, VC=3, VC dst port=xxxxx, SA dst port=xxxxx, BR dst port=xxxxx, valid=x
Port=1, VC=0, VC dst port=xxxxx, SA dst port=xxxxx, BR dst port=xxxxx, valid=x
Port=1, VC=1, VC dst port=xxxxx, SA dst port=xxxxx, BR dst port=xxxxx, valid=x
Port=1, VC=2, VC dst port=xxxxx, SA dst port=xxxxx, BR dst port=xxxxx, valid=x
Port=1, VC=3, VC dst port=xxxxx, SA dst port=xxxxx, BR dst port=xxxxx, valid=x
Port=2, VC=0, VC dst port=xxxxx, SA dst port=xxxxx, BR dst port=xxxxx, valid=x
Port=2, VC=1, VC dst port=xxxxx, SA dst port=xxxxx, BR dst port=xxxxx, valid=x
Port=2, VC=2, VC dst port=xxxxx, SA dst port=xxxxx, BR dst port=xxxxx, valid=x
Port=2, VC=3, VC dst port=xxxxx, SA dst port=xxxxx, BR dst port=xxxxx, valid=x
Port=3, VC=0, VC dst port=xxxxx, SA dst port=xxxxx, BR dst port=xxxxx, valid=x
Port=3, VC=1, VC dst port=xxxxx, SA dst port=xxxxx, BR dst port=xxxxx, valid=x
Port=3, VC=2, VC dst port=xxxxx, SA dst port=xxxxx, BR dst port=xxxxx, valid=x
Port=3, VC=3, VC dst port=xxxxx, SA dst port=xxxxx, BR dst port=xxxxx, valid=x
Port=4, VC=0, VC dst port=xxxxx, SA dst port=xxxxx, BR dst port=xxxxx, valid=x
Port=4, VC=1, VC dst port=xxxxx, SA dst port=xxxxx, BR dst port=xxxxx, valid=x
Port=4, VC=2, VC dst port=xxxxx, SA dst port=xxxxx, BR dst port=xxxxx, valid=x
Port=4, VC=3, VC dst port=xxxxx, SA dst port=xxxxx, BR dst port=xxxxx, valid=x

**********VC ALLOCATION******************
ipvc:0, allocated_op_vcs:xxxxxxxxxxxxxxxxxxxx, sa_allocated_ports=xxxxx
ipvc:1, allocated_op_vcs:xxxxxxxxxxxxxxxxxxxx, sa_allocated_ports=xxxxx
ipvc:2, allocated_op_vcs:xxxxxxxxxxxxxxxxxxxx, sa_allocated_ports=xxxxx
ipvc:3, allocated_op_vcs:xxxxxxxxxxxxxxxxxxxx, sa_allocated_ports=xxxxx
ipvc:4, allocated_op_vcs:xxxxxxxxxxxxxxxxxxxx, sa_allocated_ports=xxxxx
ipvc:5, allocated_op_vcs:xxxxxxxxxxxxxxxxxxxx, sa_allocated_ports=xxxxx
ipvc:6, allocated_op_vcs:xxxxxxxxxxxxxxxxxxxx, sa_allocated_ports=xxxxx
ipvc:7, allocated_op_vcs:xxxxxxxxxxxxxxxxxxxx, sa_allocated_ports=xxxxx
ipvc:8, allocated_op_vcs:xxxxxxxxxxxxxxxxxxxx, sa_allocated_ports=xxxxx
ipvc:9, allocated_op_vcs:xxxxxxxxxxxxxxxxxxxx, sa_allocated_ports=xxxxx
ipvc:10, allocated_op_vcs:xxxxxxxxxxxxxxxxxxxx, sa_allocated_ports=xxxxx
ipvc:11, allocated_op_vcs:xxxxxxxxxxxxxxxxxxxx, sa_allocated_ports=xxxxx
ipvc:12, allocated_op_vcs:xxxxxxxxxxxxxxxxxxxx, sa_allocated_ports=xxxxx
ipvc:13, allocated_op_vcs:xxxxxxxxxxxxxxxxxxxx, sa_allocated_ports=xxxxx
ipvc:14, allocated_op_vcs:xxxxxxxxxxxxxxxxxxxx, sa_allocated_ports=xxxxx
ipvc:15, allocated_op_vcs:xxxxxxxxxxxxxxxxxxxx, sa_allocated_ports=xxxxx
ipvc:16, allocated_op_vcs:xxxxxxxxxxxxxxxxxxxx, sa_allocated_ports=xxxxx
ipvc:17, allocated_op_vcs:xxxxxxxxxxxxxxxxxxxx, sa_allocated_ports=xxxxx
ipvc:18, allocated_op_vcs:xxxxxxxxxxxxxxxxxxxx, sa_allocated_ports=xxxxx
ipvc:19, allocated_op_vcs:xxxxxxxxxxxxxxxxxxxx, sa_allocated_ports=xxxxx

**********SA ALLOCATION******************
Port=0, sa_allocated_ports=xxxxx
Port=1, sa_allocated_ports=xxxxx
Port=2, sa_allocated_ports=xxxxx
Port=3, sa_allocated_ports=xxxxx
Port=4, sa_allocated_ports=xxxxx

**********BUFFER READ******************
Port=0, vc_index=x vc_valid=x
Port=1, vc_index=x vc_valid=x
Port=2, vc_index=x vc_valid=x
Port=3, vc_index=x vc_valid=x
Port=4, vc_index=x vc_valid=x
Port=0, br_allocated_ports=xxxxx
Port=1, br_allocated_ports=xxxxx
Port=2, br_allocated_ports=xxxxx
Port=3, br_allocated_ports=xxxxx
Port=4, br_allocated_ports=xxxxx

**********SWITCH TRAVERSAL******************
Port=0, out_data=xxxxxxxxxxxxxxxxxxxxxxxxxxxxxxxx, out_valid=x, valid=xxxxx
Port=1, out_data=xxxxxxxxxxxxxxxxxxxxxxxxxxxxxxxx, out_valid=x, valid=xxxxx
Port=2, out_data=xxxxxxxxxxxxxxxxxxxxxxxxxxxxxxxx, out_valid=x, valid=xxxxx
Port=3, out_data=xxxxxxxxxxxxxxxxxxxxxxxxxxxxxxxx, out_valid=x, valid=xxxxx
Port=4, out_data=xxxxxxxxxxxxxxxxxxxxxxxxxxxxxxxx, out_valid=x, valid=xxxxx


********************Time = 20***********
**********INPUT SIGNALS******************
Reset = x
Input:
	input_data[0]=xxxxxxxxxxxxxxxxxxxxxxxxxxxxxxxx
	input_data[1]=xxxxxxxxxxxxxxxxxxxxxxxxxxxxxxxx
	input_data[2]=xxxxxxxxxxxxxxxxxxxxxxxxxxxxxxxx
	input_data[3]=xxxxxxxxxxxxxxxxxxxxxxxxxxxxxxxx
	input_data[4]=xxxxxxxxxxxxxxxxxxxxxxxxxxxxxxxx
	input_valid=xxxxx
	op port:          1, op vc:          0, downstream_router_increment=x
	op port:          1, op vc:          1, downstream_router_increment=x
	op port:          1, op vc:          2, downstream_router_increment=x
	op port:          1, op vc:          3, downstream_router_increment=x
	op port:          2, op vc:          0, downstream_router_increment=x
	op port:          2, op vc:          1, downstream_router_increment=x
	op port:          2, op vc:          2, downstream_router_increment=x
	op port:          2, op vc:          3, downstream_router_increment=x
	op port:          3, op vc:          0, downstream_router_increment=x
	op port:          3, op vc:          1, downstream_router_increment=x
	op port:          3, op vc:          2, downstream_router_increment=x
	op port:          3, op vc:          3, downstream_router_increment=x
	op port:          4, op vc:          0, downstream_router_increment=x
	op port:          4, op vc:          1, downstream_router_increment=x
	op port:          4, op vc:          2, downstream_router_increment=x
	op port:          4, op vc:          3, downstream_router_increment=x
Outputs:
	ip port:          1, ip vc:          0, upstream_router_increment=0
	ip port:          1, ip vc:          1, upstream_router_increment=0
	ip port:          1, ip vc:          2, upstream_router_increment=0
	ip port:          1, ip vc:          3, upstream_router_increment=0
	ip port:          2, ip vc:          0, upstream_router_increment=0
	ip port:          2, ip vc:          1, upstream_router_increment=0
	ip port:          2, ip vc:          2, upstream_router_increment=0
	ip port:          2, ip vc:          3, upstream_router_increment=0
	ip port:          3, ip vc:          0, upstream_router_increment=0
	ip port:          3, ip vc:          1, upstream_router_increment=0
	ip port:          3, ip vc:          2, upstream_router_increment=0
	ip port:          3, ip vc:          3, upstream_router_increment=0
	ip port:          4, ip vc:          0, upstream_router_increment=0
	ip port:          4, ip vc:          1, upstream_router_increment=0
	ip port:          4, ip vc:          2, upstream_router_increment=0
	ip port:          4, ip vc:          3, upstream_router_increment=0
	out_data[0]=00000000000000000000000000000000
	out_data[1]=00000000000000000000000000000000
	out_data[2]=00000000000000000000000000000000
	out_data[3]=00000000000000000000000000000000
	out_data[4]=00000000000000000000000000000000
	out_valid=00000

**********VC BUFFER STATUS******************
Port=0, VC=0, vc_valid=x, vc_empty=x, vc_buffer=xxxxxxxxxxxxxxxxxxxxxxxxxxxxxxxx
Port=0, VC=1, vc_valid=x, vc_empty=x, vc_buffer=xxxxxxxxxxxxxxxxxxxxxxxxxxxxxxxx
Port=0, VC=2, vc_valid=x, vc_empty=x, vc_buffer=xxxxxxxxxxxxxxxxxxxxxxxxxxxxxxxx
Port=0, VC=3, vc_valid=x, vc_empty=x, vc_buffer=xxxxxxxxxxxxxxxxxxxxxxxxxxxxxxxx
Port=1, VC=0, vc_valid=x, vc_empty=x, vc_buffer=xxxxxxxxxxxxxxxxxxxxxxxxxxxxxxxx
Port=1, VC=1, vc_valid=x, vc_empty=x, vc_buffer=xxxxxxxxxxxxxxxxxxxxxxxxxxxxxxxx
Port=1, VC=2, vc_valid=x, vc_empty=x, vc_buffer=xxxxxxxxxxxxxxxxxxxxxxxxxxxxxxxx
Port=1, VC=3, vc_valid=x, vc_empty=x, vc_buffer=xxxxxxxxxxxxxxxxxxxxxxxxxxxxxxxx
Port=2, VC=0, vc_valid=x, vc_empty=x, vc_buffer=xxxxxxxxxxxxxxxxxxxxxxxxxxxxxxxx
Port=2, VC=1, vc_valid=x, vc_empty=x, vc_buffer=xxxxxxxxxxxxxxxxxxxxxxxxxxxxxxxx
Port=2, VC=2, vc_valid=x, vc_empty=x, vc_buffer=xxxxxxxxxxxxxxxxxxxxxxxxxxxxxxxx
Port=2, VC=3, vc_valid=x, vc_empty=x, vc_buffer=xxxxxxxxxxxxxxxxxxxxxxxxxxxxxxxx
Port=3, VC=0, vc_valid=x, vc_empty=x, vc_buffer=xxxxxxxxxxxxxxxxxxxxxxxxxxxxxxxx
Port=3, VC=1, vc_valid=x, vc_empty=x, vc_buffer=xxxxxxxxxxxxxxxxxxxxxxxxxxxxxxxx
Port=3, VC=2, vc_valid=x, vc_empty=x, vc_buffer=xxxxxxxxxxxxxxxxxxxxxxxxxxxxxxxx
Port=3, VC=3, vc_valid=x, vc_empty=x, vc_buffer=xxxxxxxxxxxxxxxxxxxxxxxxxxxxxxxx
Port=4, VC=0, vc_valid=x, vc_empty=x, vc_buffer=xxxxxxxxxxxxxxxxxxxxxxxxxxxxxxxx
Port=4, VC=1, vc_valid=x, vc_empty=x, vc_buffer=xxxxxxxxxxxxxxxxxxxxxxxxxxxxxxxx
Port=4, VC=2, vc_valid=x, vc_empty=x, vc_buffer=xxxxxxxxxxxxxxxxxxxxxxxxxxxxxxxx
Port=4, VC=3, vc_valid=x, vc_empty=x, vc_buffer=xxxxxxxxxxxxxxxxxxxxxxxxxxxxxxxx

**********BUFFER WRITE******************
Port=0, empty_vc_index=x
Port=1, empty_vc_index=x
Port=2, empty_vc_index=x
Port=3, empty_vc_index=x
Port=4, empty_vc_index=x

**********ROUTE COMPUTE******************
Port=0, VC=0, dst_port=xxxxx
Port=0, VC=1, dst_port=xxxxx
Port=0, VC=2, dst_port=xxxxx
Port=0, VC=3, dst_port=xxxxx
Port=1, VC=0, dst_port=xxxxx
Port=1, VC=1, dst_port=xxxxx
Port=1, VC=2, dst_port=xxxxx
Port=1, VC=3, dst_port=xxxxx
Port=2, VC=0, dst_port=xxxxx
Port=2, VC=1, dst_port=xxxxx
Port=2, VC=2, dst_port=xxxxx
Port=2, VC=3, dst_port=xxxxx
Port=3, VC=0, dst_port=xxxxx
Port=3, VC=1, dst_port=xxxxx
Port=3, VC=2, dst_port=xxxxx
Port=3, VC=3, dst_port=xxxxx
Port=4, VC=0, dst_port=xxxxx
Port=4, VC=1, dst_port=xxxxx
Port=4, VC=2, dst_port=xxxxx
Port=4, VC=3, dst_port=xxxxx

**********VC AVALABILITY******************
VCAvailability, out port=0, out vc=0, credits:xxxx, new_vc_availability:11111111111111111111
VCAvailability, out port=0, out vc=1, credits:xxxx, new_vc_availability:11111111111111111111
VCAvailability, out port=0, out vc=2, credits:xxxx, new_vc_availability:11111111111111111111
VCAvailability, out port=0, out vc=3, credits:xxxx, new_vc_availability:11111111111111111111
VCAvailability, out port=1, out vc=0, credits:xxxx, new_vc_availability:11111111111111111111
VCAvailability, out port=1, out vc=1, credits:xxxx, new_vc_availability:11111111111111111111
VCAvailability, out port=1, out vc=2, credits:xxxx, new_vc_availability:11111111111111111111
VCAvailability, out port=1, out vc=3, credits:xxxx, new_vc_availability:11111111111111111111
VCAvailability, out port=2, out vc=0, credits:xxxx, new_vc_availability:11111111111111111111
VCAvailability, out port=2, out vc=1, credits:xxxx, new_vc_availability:11111111111111111111
VCAvailability, out port=2, out vc=2, credits:xxxx, new_vc_availability:11111111111111111111
VCAvailability, out port=2, out vc=3, credits:xxxx, new_vc_availability:11111111111111111111
VCAvailability, out port=3, out vc=0, credits:xxxx, new_vc_availability:11111111111111111111
VCAvailability, out port=3, out vc=1, credits:xxxx, new_vc_availability:11111111111111111111
VCAvailability, out port=3, out vc=2, credits:xxxx, new_vc_availability:11111111111111111111
VCAvailability, out port=3, out vc=3, credits:xxxx, new_vc_availability:11111111111111111111
VCAvailability, out port=4, out vc=0, credits:xxxx, new_vc_availability:11111111111111111111
VCAvailability, out port=4, out vc=1, credits:xxxx, new_vc_availability:11111111111111111111
VCAvailability, out port=4, out vc=2, credits:xxxx, new_vc_availability:11111111111111111111
VCAvailability, out port=4, out vc=3, credits:xxxx, new_vc_availability:11111111111111111111

Mask Generation:
Port=0, VC=0, VC dst port=xxxxx, SA dst port=00000, BR dst port=xxxxx, valid=0
Port=0, VC=1, VC dst port=xxxxx, SA dst port=00000, BR dst port=xxxxx, valid=0
Port=0, VC=2, VC dst port=xxxxx, SA dst port=00000, BR dst port=xxxxx, valid=0
Port=0, VC=3, VC dst port=xxxxx, SA dst port=00000, BR dst port=xxxxx, valid=0
Port=1, VC=0, VC dst port=xxxxx, SA dst port=00000, BR dst port=xxxxx, valid=0
Port=1, VC=1, VC dst port=xxxxx, SA dst port=00000, BR dst port=xxxxx, valid=0
Port=1, VC=2, VC dst port=xxxxx, SA dst port=00000, BR dst port=xxxxx, valid=0
Port=1, VC=3, VC dst port=xxxxx, SA dst port=00000, BR dst port=xxxxx, valid=0
Port=2, VC=0, VC dst port=xxxxx, SA dst port=00000, BR dst port=xxxxx, valid=0
Port=2, VC=1, VC dst port=xxxxx, SA dst port=00000, BR dst port=xxxxx, valid=0
Port=2, VC=2, VC dst port=xxxxx, SA dst port=00000, BR dst port=xxxxx, valid=0
Port=2, VC=3, VC dst port=xxxxx, SA dst port=00000, BR dst port=xxxxx, valid=0
Port=3, VC=0, VC dst port=xxxxx, SA dst port=00000, BR dst port=xxxxx, valid=0
Port=3, VC=1, VC dst port=xxxxx, SA dst port=00000, BR dst port=xxxxx, valid=0
Port=3, VC=2, VC dst port=xxxxx, SA dst port=00000, BR dst port=xxxxx, valid=0
Port=3, VC=3, VC dst port=xxxxx, SA dst port=00000, BR dst port=xxxxx, valid=0
Port=4, VC=0, VC dst port=xxxxx, SA dst port=00000, BR dst port=xxxxx, valid=0
Port=4, VC=1, VC dst port=xxxxx, SA dst port=00000, BR dst port=xxxxx, valid=0
Port=4, VC=2, VC dst port=xxxxx, SA dst port=00000, BR dst port=xxxxx, valid=0
Port=4, VC=3, VC dst port=xxxxx, SA dst port=00000, BR dst port=xxxxx, valid=0

**********VC ALLOCATION******************
ipvc:0, allocated_op_vcs:xxxxxxxxxxxxxxxxxxxx, sa_allocated_ports=xxxxx
ipvc:1, allocated_op_vcs:xxxxxxxxxxxxxxxxxxxx, sa_allocated_ports=xxxxx
ipvc:2, allocated_op_vcs:xxxxxxxxxxxxxxxxxxxx, sa_allocated_ports=xxxxx
ipvc:3, allocated_op_vcs:xxxxxxxxxxxxxxxxxxxx, sa_allocated_ports=xxxxx
ipvc:4, allocated_op_vcs:xxxxxxxxxxxxxxxxxxxx, sa_allocated_ports=xxxxx
ipvc:5, allocated_op_vcs:xxxxxxxxxxxxxxxxxxxx, sa_allocated_ports=xxxxx
ipvc:6, allocated_op_vcs:xxxxxxxxxxxxxxxxxxxx, sa_allocated_ports=xxxxx
ipvc:7, allocated_op_vcs:xxxxxxxxxxxxxxxxxxxx, sa_allocated_ports=xxxxx
ipvc:8, allocated_op_vcs:xxxxxxxxxxxxxxxxxxxx, sa_allocated_ports=xxxxx
ipvc:9, allocated_op_vcs:xxxxxxxxxxxxxxxxxxxx, sa_allocated_ports=xxxxx
ipvc:10, allocated_op_vcs:xxxxxxxxxxxxxxxxxxxx, sa_allocated_ports=xxxxx
ipvc:11, allocated_op_vcs:xxxxxxxxxxxxxxxxxxxx, sa_allocated_ports=xxxxx
ipvc:12, allocated_op_vcs:xxxxxxxxxxxxxxxxxxxx, sa_allocated_ports=xxxxx
